…
unique(df_mean_joined$spot)
```

    ## [1] "expected_range"

``` r
count(df_mean_joined, spot)
```

    ## # A tibble: 1,902 × 4
    ## # Groups:   chromosome, start [1,902]
    ##    chromosome  start spot               n
    ##    <chr>       <int> <chr>          <int>
    ##  1 Chr1          508 expected_range     1
    ##  2 Chr1       100508 expected_range     1
    ##  3 Chr1       200508 expected_range     1
    ##  4 Chr1       300508 expected_range     1
    ##  5 Chr1       400508 expected_range     1
    ##  6 Chr1       500508 expected_range     1
    ##  7 Chr1       600508 expected_range     1
    ##  8 Chr1       700508 expected_range     1
    ##  9 Chr1       800508 expected_range     1
    ## 10 Chr1       900508 expected_range     1
    ## # ℹ 1,892 more rows
…
