…
unique(df_mean_joined$spot)
```

    ## [1] "expected_range"

``` r
count(df_mean_joined, spot)
```

    ## # A tibble: 190,376 × 4
    ## # Groups:   chromosome, start [190,376]
    ##    chromosome start spot               n
    ##    <chr>      <int> <chr>          <int>
    ##  1 Chr1         508 expected_range     1
    ##  2 Chr1        1508 expected_range     1
    ##  3 Chr1        2508 expected_range     1
    ##  4 Chr1        3508 expected_range     1
    ##  5 Chr1        4508 expected_range     1
    ##  6 Chr1        5508 expected_range     1
    ##  7 Chr1        6508 expected_range     1
    ##  8 Chr1        7508 expected_range     1
    ##  9 Chr1        8508 expected_range     1
    ## 10 Chr1        9508 expected_range     1
    ## # ℹ 190,366 more rows
…
